%YAML 1.1
%TAG !u! tag:unity3d.com,2011:
--- !u!114 &-8112817107213151180
MonoBehaviour:
  m_ObjectHideFlags: 0
  m_CorrespondingSourceObject: {fileID: 0}
  m_PrefabInstance: {fileID: 0}
  m_PrefabAsset: {fileID: 0}
  m_GameObject: {fileID: 0}
  m_Enabled: 1
  m_EditorHideFlags: 0
  m_Script: {fileID: 11500000, guid: 8e89ba25abb122042a5b80e16db161d0, type: 3}
  m_Name: MoveToPositionNode
  m_EditorClassIdentifier: 
  m_ExecutionPorts: []
  m_Guid: 8f341ead6ed6fa941bae79d163a36631
  m_Position: {x: 359.27017, y: -283.49997}
  m_ApproachThreshold: 0.2
  m_StateOnFail: 3
  m_StopOnSuccess: 1
  m_IsRunning: 0
  m_TargetMode: 0
  m_AroundRadius: 0
  m_AttemptDuration: 0
  m_RandomOffset: {x: 0, y: 0, z: 0}
  m_InitialTime: 0
  m_TargetPosition: {x: 0, y: 0, z: 0}
--- !u!114 &-7167888986659962445
MonoBehaviour:
  m_ObjectHideFlags: 0
  m_CorrespondingSourceObject: {fileID: 0}
  m_PrefabInstance: {fileID: 0}
  m_PrefabAsset: {fileID: 0}
  m_GameObject: {fileID: 0}
  m_Enabled: 1
  m_EditorHideFlags: 0
  m_Script: {fileID: 11500000, guid: 0bfedc4f8c87c2448bdc470849bfa800, type: 3}
  m_Name: MoveToRoomNode
  m_EditorClassIdentifier: 
  m_ExecutionPorts: []
  m_Guid: 81a02b89956ce7241ae86c234f40d5d0
  m_Position: {x: 298.9999, y: -225.99208}
  m_ApproachThreshold: 0.2
  m_StateOnFail: 0
  m_StopOnSuccess: 1
  m_IsRunning: 0
  _targetRoomId:
    Id: Kitchen
  _excludeRooms: []
  _moveToRoomMode: 0
  m_PositionVariance: 1
  _targetRoom:
    Id: 
    InteractableObjects: []
    RoomTransform: {fileID: 0}
    RoomCollider: {fileID: 0}
--- !u!114 &-7012860721491271229
MonoBehaviour:
  m_ObjectHideFlags: 0
  m_CorrespondingSourceObject: {fileID: 0}
  m_PrefabInstance: {fileID: 0}
  m_PrefabAsset: {fileID: 0}
  m_GameObject: {fileID: 0}
  m_Enabled: 1
  m_EditorHideFlags: 0
  m_Script: {fileID: 11500000, guid: c75bc8737bf13a34ba5683f446eb53ad, type: 3}
  m_Name: SequencerNode
  m_EditorClassIdentifier: 
  m_ExecutionPorts:
  - output:
      guid: 57bf299322741154eab6dc89bf0d8405
      index: 0
  - output:
      guid: 8dbe84fa2c1e8144594fa80062b9aab2
      index: 0
  m_Guid: 59cec47921722d84ca3d7c864b2d1070
  m_Position: {x: -127, y: -1}
  m_ContinueOnFail: 0
--- !u!114 &-4833969753560845078
MonoBehaviour:
  m_ObjectHideFlags: 0
  m_CorrespondingSourceObject: {fileID: 0}
  m_PrefabInstance: {fileID: 0}
  m_PrefabAsset: {fileID: 0}
  m_GameObject: {fileID: 0}
  m_Enabled: 1
  m_EditorHideFlags: 0
  m_Script: {fileID: 11500000, guid: e7cd75ccf0384ab4bb0877bb4d21e417, type: 3}
  m_Name: PlayTreeNode
  m_EditorClassIdentifier: 
  m_ExecutionPorts: []
  m_Guid: 8dbe84fa2c1e8144594fa80062b9aab2
  m_Position: {x: 359, y: 262.69275}
  m_Target: {fileID: 11400000}
  m_ForcePlay: 1
--- !u!114 &-4558700454421082309
MonoBehaviour:
  m_ObjectHideFlags: 0
  m_CorrespondingSourceObject: {fileID: 0}
  m_PrefabInstance: {fileID: 0}
  m_PrefabAsset: {fileID: 0}
  m_GameObject: {fileID: 0}
  m_Enabled: 1
  m_EditorHideFlags: 0
  m_Script: {fileID: 11500000, guid: c75bc8737bf13a34ba5683f446eb53ad, type: 3}
  m_Name: SequencerNode
  m_EditorClassIdentifier: 
  m_ExecutionPorts:
  - output:
      guid: 8f341ead6ed6fa941bae79d163a36631
      index: 0
  - output:
      guid: 8393a5a94c0b77e439423ada46915f8a
      index: 0
  m_Guid: 57bf299322741154eab6dc89bf0d8405
  m_Position: {x: 76.999954, y: -191.06984}
  m_ContinueOnFail: 0
--- !u!114 &11400000
MonoBehaviour:
  m_ObjectHideFlags: 0
  m_CorrespondingSourceObject: {fileID: 0}
  m_PrefabInstance: {fileID: 0}
  m_PrefabAsset: {fileID: 0}
  m_GameObject: {fileID: 0}
  m_Enabled: 1
  m_EditorHideFlags: 0
  m_Script: {fileID: 11500000, guid: 95740bf29708f7448b24af0c3725fbcb, type: 3}
  m_Name: Tree_Debug
  m_EditorClassIdentifier: 
  m_Root: {fileID: 8956696897232857309}
  m_Nodes:
  - {fileID: 8956696897232857309}
  - {fileID: -4558700454421082309}
  - {fileID: -4833969753560845078}
  - {fileID: -7012860721491271229}
  - {fileID: -8112817107213151180}
  - {fileID: 8029545832304825072}
--- !u!114 &6346285610717842386
MonoBehaviour:
  m_ObjectHideFlags: 0
  m_CorrespondingSourceObject: {fileID: 0}
  m_PrefabInstance: {fileID: 0}
  m_PrefabAsset: {fileID: 0}
  m_GameObject: {fileID: 0}
  m_Enabled: 1
  m_EditorHideFlags: 0
  m_Script: {fileID: 11500000, guid: cea1bf470072dd2408239c2717ff92a0, type: 3}
  m_Name: FindInvalidInteractionsNode
  m_EditorClassIdentifier: 
  m_ExecutionPorts: []
  m_Guid: 28fff667860404043b261177a4576781
  m_Position: {x: 521.00006, y: 185.80963}
  m_FoundInteractables:
  - {fileID: 0}
--- !u!114 &8029545832304825072
MonoBehaviour:
  m_ObjectHideFlags: 0
  m_CorrespondingSourceObject: {fileID: 0}
  m_PrefabInstance: {fileID: 0}
  m_PrefabAsset: {fileID: 0}
  m_GameObject: {fileID: 0}
  m_Enabled: 1
  m_EditorHideFlags: 0
  m_Script: {fileID: 11500000, guid: 18bab1d3428d5e9489f4288bd0465cd0, type: 3}
  m_Name: PlayAnimationNode
  m_EditorClassIdentifier: 
  m_ExecutionPorts: []
  m_Guid: 8393a5a94c0b77e439423ada46915f8a
  m_Position: {x: 359, y: 48.692787}
  _animationName:
    Name: 
  _waitForAnimation: 1
  _animationDuration: 0
  _timer: 0
--- !u!114 &8411248346450526195
MonoBehaviour:
  m_ObjectHideFlags: 0
  m_CorrespondingSourceObject: {fileID: 0}
  m_PrefabInstance: {fileID: 0}
  m_PrefabAsset: {fileID: 0}
  m_GameObject: {fileID: 0}
  m_Enabled: 1
  m_EditorHideFlags: 0
  m_Script: {fileID: 11500000, guid: 5e1141a866d6fcd4f9cc34095f1d666f, type: 3}
  m_Name: CheckRoomNode
  m_EditorClassIdentifier: 
  m_ExecutionPorts: []
  m_Guid: d84128e3f53ca2e4b937f1e74ace27d8
  m_Position: {x: 298.99997, y: -7.6779594}
  _output1: CurrentRoom
  _output2: CurrentRoomValid
  _roomId: 
  _isRoomValid: 0
--- !u!114 &8956696897232857309
MonoBehaviour:
  m_ObjectHideFlags: 0
  m_CorrespondingSourceObject: {fileID: 0}
  m_PrefabInstance: {fileID: 0}
  m_PrefabAsset: {fileID: 0}
  m_GameObject: {fileID: 0}
  m_Enabled: 1
  m_EditorHideFlags: 0
  m_Script: {fileID: 11500000, guid: 53e4606e73a5ecb419e6357eb52eb6fe, type: 3}
  m_Name: RootNode
  m_EditorClassIdentifier: 
  m_ExecutionPorts:
  - output:
      guid: 59cec47921722d84ca3d7c864b2d1070
      index: 0
  m_Guid: 639c9067e49ad14438198c513bef8ea3
  m_Position: {x: -317, y: -1}
